Skoki narciarskie mężczyzn 2013/14 - EDA
…
ostateczne_dane %>%
  group_by(location) %>%
  summarise(mediana = median(dist_prop), srednia = mean(dist_prop)) %>%
arrange(desc(mediana))

## # A tibble: 28 × 3
##    location                     mediana srednia
##    <fct>                          <dbl>   <dbl>
##  1 Titisee-Neustadt (GER)          1.07    1.07
##  2 Garmisch-Partenkirchen (GER)    1.04    1.04
##  3 Ruka (FIN)                      1.04    1.02
##  4 Oberstdorf (GER)                1.04    1.05
##  5 Bischofshofen (AUT)             1.04    1.03
##  6 Wisla (POL)                     1.03    1.03
##  7 Willingen (GER)                 1.03    1.03
##  8 Lillehammer (NOR)               1.03    1.03
##  9 Oslo (NOR)                      1.02    1.02
## 10 Sapporo (JPN)                   1.02    1.01
## # ℹ 18 more rows

ostateczne_dane %>%
  group_by(location) %>%
  summarise(mediana = median(dist_prop), srednia = mean(dist_prop)) %>%
arrange(mediana)

## # A tibble: 28 × 3
##    location                       mediana srednia
##    <fct>                            <dbl>   <dbl>
##  1 Nizhny Tagil (RUS)               0.921   0.907
##  2 Iron Mountain, MI (USA)          0.938   0.915
##  3 Harrachov (CZE)                  0.949   0.951
##  4 Tauplitz/Bad Mitterndorf (AUT)   0.951   0.955
##  5 Predazzo (ITA)                   0.953   0.933
##  6 Zakopane (POL)                   0.979   0.980
##  7 Courchevel (FRA)                 0.983   0.974
##  8 Klingenthal (GER)                0.984   0.986
##  9 Innsbruck (AUT)                  0.988   0.979
## 10 Kuopio (FIN)                     0.992   0.991
## # ℹ 18 more rows
…
